…
Chose the following Destinations
================================

ATL=2252 AUS=49637 DAL=5573 DEN= 2673 DFW= 5506 HOU=2319 IAH=3691
ORD=2514 PHX=2783

Create new data frame by Destination and Month for the most popular destinations
================================================================================

    ## # A tibble: 108 × 4
    ## # Groups:   Month [12]
    ##    Month Dest  count mean_ArrDelay
    ##    <int> <chr> <int>         <dbl>
    ##  1     1 ATL     210          5.34
    ##  2     1 AUS    4365          7.66
    ##  3     1 DAL     597          1.58
    ##  4     1 DEN     182          2.82
    ##  5     1 DFW     453          6.43
    ##  6     1 HOU     202          6.56
    ##  7     1 IAH     303         12.6 
    ##  8     1 ORD     210         27.3 
    ##  9     1 PHX     233          1.67
    ## 10     2 ATL     183         11.6 
    ## # … with 98 more rows
…
The bar plot shows the 19 artists who had at least 30 ten-week hits
which are songs that appeared on the Billboard Top 100 for at least ten
weeks.

3) Wrangling the Olympics
=========================

PART A

The 95th percentile of heights for female competitors across all Athletics events
=================================================================================

    ## # A tibble: 27 × 2
    ##    event                                       percentile_95
    ##    <chr>                                               <dbl>
    ##  1 Athletics Women's 1,500 metres                       172 
    ##  2 Athletics Women's 10 kilometres Walk                 170 
    ##  3 Athletics Women's 10,000 metres                      168.
    ##  4 Athletics Women's 100 metres                         180.
    ##  5 Athletics Women's 100 metres Hurdles                 176 
    ##  6 Athletics Women's 20 kilometres Walk                 173 
    ##  7 Athletics Women's 200 metres                         180 
    ##  8 Athletics Women's 3,000 metres                       170 
    ##  9 Athletics Women's 3,000 metres Steeplechase          177.
    ## 10 Athletics Women's 4 x 100 metres Relay               176 
    ## # … with 17 more rows

PART B

The single women's event with the greatest variability in competitor's heights across the entire history of the Olympics
========================================================================================================================

    ## [1] "Rowing Women's Coxed Fours"

PART C

The average age of Olympic swimmers over time
=============================================

    ## # A tibble: 46 × 3
    ## # Groups:   year [28]
    ##     year sex   mean_age
    ##    <int> <chr>    <dbl>
    ##  1  1900 M         18  
    ##  2  1904 M         20.1
    ##  3  1906 M         22  
    ##  4  1908 M         23.5
    ##  5  1912 M         27  
    ##  6  1920 M         26  
    ##  7  1924 F         18  
    ##  8  1924 M         32  
    ##  9  1928 M         23.5
    ## 10  1932 M         19  
    ## # … with 36 more rows
…
